testb_control_unit.vcd
$date
	Mon Apr 29 20:40:53 2024
$end
$version
	Icarus Verilog
$end
$timescale
	1ps
$end
$scope module testb_control_unit $end
$var wire 1 ! ruWr_tb $end
$var wire 2 " ruDataWrSrc_tb [1:0] $end
$var wire 3 # immSrc_tb [2:0] $end
$var wire 1 $ dmWr_tb $end
$var wire 3 % dmCtrl_tb [2:0] $end
$var wire 5 & brOp_tb [4:0] $end
$var wire 4 ' aluOp_tb [3:0] $end
$var wire 1 ( aluBSrc_tb $end
$var wire 1 ) aluASrc_tb $end
$var parameter 32 * CLK_PERIOD $end
$var reg 1 + clk_tb $end
$var reg 3 , func3 [2:0] $end
$var reg 7 - func7 [6:0] $end
$var reg 7 . opCode [6:0] $end
$scope module dut $end
$var wire 3 / func3 [2:0] $end
$var wire 7 0 func7 [6:0] $end
$var wire 7 1 opCode [6:0] $end
$var wire 1 2 func5 $end
$var reg 1 ) aluASrc $end
$var reg 1 ( aluBSrc $end
$var reg 4 3 aluOp [3:0] $end
$var reg 5 4 brOp [4:0] $end
$var reg 3 5 dmCtrl [2:0] $end
$var reg 1 $ dmWr $end
$var reg 3 6 immSrc [2:0] $end
$var reg 2 7 ruDataWrSrc [1:0] $end
$var reg 1 ! ruWr $end
$upscope $end
$upscope $end
$enddefinitions $end
$comment Show the parameter values. $end
$dumpall
b1010 *
$end
#0
$dumpvars
b0 7
bx 6
bx 5
bx 4
b0 3
02
b110011 1
b0 0
b0 /
b110011 .
b0 -
b0 ,
0+
0)
0(
b0 '
bx &
bx %
x$
bx #
b0 "
1!
$end
#10000
1+
#20000
b110 '
b110 3
12
b100000 -
b100000 0
0+
#30000
b1 '
b1 3
02
b1 ,
b1 /
b0 -
b0 0
1+
#40000
b11 '
b11 3
b11 ,
b11 /
0+
#50000
b100 '
b100 3
b100 ,
b100 /
1+
#60000
b101 '
b101 3
b101 ,
b101 /
0+
#70000
b0 &
b0 4
12
b100000 -
b100000 0
1+
#80000
b111 '
b111 3
02
b110 ,
b110 /
b0 -
b0 0
0+
#90000
b1000 '
b1000 3
b111 ,
b111 /
1+
#100000
x2
b0 %
b0 5
0$
1(
b0 #
b0 6
b0 '
b0 3
b0 ,
b0 /
bx -
bx 0
b10011 .
b10011 1
0+
#110000
b1 '
b1 3
b1 ,
b1 /
1+
#120000
b10 '
b10 3
b10 ,
b10 /
0+
#130000
b11 '
b11 3
b11 ,
b11 /
1+
#140000
b100 '
b100 3
b100 ,
b100 /
0+
#150000
b111 '
b111 3
02
b101 ,
b101 /
b0 -
b0 0
1+
#160000
b110 '
b110 3
12
b100000 -
b100000 0
0+
#170000
b1000 '
b1000 3
x2
b110 ,
b110 /
bx -
bx 0
1+
#180000
b1001 '
b1001 3
b111 ,
b111 /
0+
#190000
b1 "
b1 7
b0 '
b0 3
b0 ,
b0 /
b11 .
b11 1
1+
#200000
b1 %
b1 5
b1 ,
b1 /
0+
#210000
b10 %
b10 5
b10 ,
b10 /
1+
#220000
b100 %
b100 5
b100 ,
b100 /
0+
#230000
b101 %
b101 5
b101 ,
b101 /
1+
#240000
b10 "
b10 7
b10000 &
b10000 4
b0 %
b0 5
b0 ,
b0 /
b1100111 .
b1100111 1
0+
#250000
b0 "
b0 7
1)
b101 #
b101 6
0!
b1000 &
b1000 4
b1100011 .
b1100011 1
1+
#260000
b1001 &
b1001 4
b1 ,
b1 /
0+
#270000
b1100 &
b1100 4
b100 ,
b100 /
1+
#280000
b1101 &
b1101 4
b101 ,
b101 /
0+
#290000
b1110 &
b1110 4
b110 ,
b110 /
1+
#300000
b1111 &
b1111 4
b111 ,
b111 /
0+
#310000
b0 &
b0 4
1$
0)
b1 #
b1 6
b0 ,
b0 /
b100011 .
b100011 1
1+
#320000
b1 %
b1 5
b1 ,
b1 /
0+
#330000
b10 %
b10 5
b10 ,
b10 /
1+
#340000
b10 "
b10 7
b10000 &
b10000 4
b0 %
b0 5
0$
1)
b110 #
b110 6
1!
bx ,
bx /
b1101111 .
b1101111 1
0+
